\relax 
\newlabel{lst:phi}{{1}{2}}
\@writefile{lol}{\contentsline {lstlisting}{\numberline {1}Anonymous function $\phi (x)$.}{2}}
\@writefile{toc}{\contentsline {section}{\numberline {1}Algorithmic Choices}{2}}
\@writefile{toc}{\contentsline {subsection}{\numberline {1.1}Variables/Triggers}{2}}
\newlabel{subsec:Variables/Triggers}{{1.1}{2}}
\@writefile{toc}{\contentsline {subsection}{\numberline {1.2}Generating Data}{2}}
\newlabel{subsec:Generating_data}{{1.2}{2}}
\@writefile{toc}{\contentsline {subsection}{\numberline {1.3}Calculation}{3}}
\newlabel{subsec:Calculation}{{1.3}{3}}
\newlabel{eq:dm}{{1}{3}}
\newlabel{eq:D}{{2}{3}}
\@writefile{toc}{\contentsline {subsection}{\numberline {1.4}Error}{3}}
\newlabel{subsec:Error}{{1.4}{3}}
\newlabel{eq:error}{{3}{3}}
\newlabel{eq:error2}{{4}{4}}
\@writefile{toc}{\contentsline {subsection}{\numberline {1.5}K-Fold Cross Validation}{4}}
\@writefile{toc}{\contentsline {section}{\numberline {2}Numbers, Illustrations and Results}{4}}
\@writefile{toc}{\contentsline {subsection}{\numberline {2.1}Example 1: A Little Bit Over-Fitted}{4}}
\newlabel{subsec:Example_1}{{2.1}{4}}
\@writefile{lof}{\contentsline {figure}{\numberline {1}{\ignorespaces  Dataset No. 1. }}{5}}
\newlabel{fig:od1}{{1}{5}}
\@writefile{lof}{\contentsline {figure}{\numberline {2}{\ignorespaces  Dataset No. 2. }}{5}}
\newlabel{fig:od1}{{2}{5}}
\@writefile{lof}{\contentsline {figure}{\numberline {3}{\ignorespaces  Dataset No. 3. }}{6}}
\newlabel{fig:od1}{{3}{6}}
\@writefile{lof}{\contentsline {figure}{\numberline {4}{\ignorespaces  The best fit found by the program. }}{6}}
\newlabel{fig:me}{{4}{6}}
\@writefile{lof}{\contentsline {figure}{\numberline {5}{\ignorespaces  The normalized error for the different $\lambda $s. As given in the heading of Figure\nobreakspace  {}4\hbox {} the best $\lambda = 3900$. }}{7}}
\newlabel{fig:od1}{{5}{7}}
\@writefile{toc}{\contentsline {subsection}{\numberline {2.2}Example 2: Heavily Over-Fitted}{7}}
\newlabel{subsec:Example_2}{{2.2}{7}}
\@writefile{lof}{\contentsline {figure}{\numberline {6}{\ignorespaces  Dataset No. 1. }}{8}}
\newlabel{fig:od1}{{6}{8}}
\@writefile{lof}{\contentsline {figure}{\numberline {7}{\ignorespaces  Dataset No. 2. }}{8}}
\newlabel{fig:od1}{{7}{8}}
\@writefile{lof}{\contentsline {figure}{\numberline {8}{\ignorespaces  Dataset No. 3. }}{9}}
\newlabel{fig:od1}{{8}{9}}
\@writefile{lof}{\contentsline {figure}{\numberline {9}{\ignorespaces  The best fit found by the program. }}{9}}
\newlabel{fig:me2}{{9}{9}}
\@writefile{lof}{\contentsline {figure}{\numberline {10}{\ignorespaces  The normalized error for the different $\lambda $s. As given in the heading of Figure\nobreakspace  {}9\hbox {} the best $\lambda = 100$. }}{10}}
\newlabel{fig:od1}{{10}{10}}
\@writefile{toc}{\contentsline {subsection}{\numberline {2.3}Example 3: Nice Fit}{10}}
\newlabel{subsec:Example_3:_Nice_Fit}{{2.3}{10}}
\@writefile{lof}{\contentsline {figure}{\numberline {11}{\ignorespaces  Dataset No. 1. }}{11}}
\newlabel{fig:od1}{{11}{11}}
\@writefile{lof}{\contentsline {figure}{\numberline {12}{\ignorespaces  Dataset No. 2. }}{11}}
\newlabel{fig:od1}{{12}{11}}
\@writefile{lof}{\contentsline {figure}{\numberline {13}{\ignorespaces  Dataset No. 3. }}{12}}
\newlabel{fig:od1}{{13}{12}}
\@writefile{lof}{\contentsline {figure}{\numberline {14}{\ignorespaces  The best fit found by the program. }}{12}}
\newlabel{fig:me3}{{14}{12}}
\@writefile{lof}{\contentsline {figure}{\numberline {15}{\ignorespaces  The normalized error for the different $\lambda $s. As given in the heading of Figure\nobreakspace  {}14\hbox {} the best $\lambda = 600$. }}{13}}
\newlabel{fig:od1}{{15}{13}}
\@writefile{toc}{\contentsline {subsection}{\numberline {2.4}Example 4: Under-Fitting}{13}}
\newlabel{subsec:Example_3:_Under-Fitting}{{2.4}{13}}
\@writefile{lof}{\contentsline {figure}{\numberline {16}{\ignorespaces  Dataset No. 1. }}{14}}
\newlabel{fig:od1}{{16}{14}}
\@writefile{lof}{\contentsline {figure}{\numberline {17}{\ignorespaces  Dataset No. 2. }}{14}}
\newlabel{fig:od1}{{17}{14}}
\@writefile{lof}{\contentsline {figure}{\numberline {18}{\ignorespaces  Dataset No. 3. }}{15}}
\newlabel{fig:od1}{{18}{15}}
\@writefile{lof}{\contentsline {figure}{\numberline {19}{\ignorespaces  The best fit found by the program. }}{15}}
\newlabel{fig:me4}{{19}{15}}
\@writefile{lof}{\contentsline {figure}{\numberline {20}{\ignorespaces  The normalized error for the different $\lambda $s. As given in the heading of Figure\nobreakspace  {}19\hbox {} the best $\lambda = 5500$. }}{16}}
\newlabel{fig:od1}{{20}{16}}
\@writefile{toc}{\contentsline {section}{\numberline {3}Discussion, Insights and Observations}{17}}
\@writefile{toc}{\contentsline {subsection}{\numberline {3.1}Generating samples}{17}}
\@writefile{toc}{\contentsline {subsection}{\numberline {3.2}Choosing the polynomial function $\phi (x)$}{17}}
\@writefile{toc}{\contentsline {subsection}{\numberline {3.3}Choosing our Lambda}{17}}
